%YAML 1.1
%TAG !u! tag:unity3d.com,2011:
--- !u!114 &11400000
MonoBehaviour:
  m_ObjectHideFlags: 0
  m_CorrespondingSourceObject: {fileID: 0}
  m_PrefabInstance: {fileID: 0}
  m_PrefabAsset: {fileID: 0}
  m_GameObject: {fileID: 0}
  m_Enabled: 1
  m_EditorHideFlags: 0
  m_Script: {fileID: 11500000, guid: fd348318b978b3646bf6c0595a8cf8a0, type: 3}
  m_Name: ERifle Stats SO
  m_EditorClassIdentifier: 
  gunPrefab: {fileID: 6686117170856671450, guid: 7324dfc7ce9a10643864bc1bcfaad0b7,
    type: 3}
  maxAmmo: 200
  fireRate: 100
  damage: 10
  critChance: 0
  critDamage: 0
