%YAML 1.1
%TAG !u! tag:unity3d.com,2011:
--- !u!114 &11400000
MonoBehaviour:
  m_ObjectHideFlags: 0
  m_CorrespondingSourceObject: {fileID: 0}
  m_PrefabInstance: {fileID: 0}
  m_PrefabAsset: {fileID: 0}
  m_GameObject: {fileID: 0}
  m_Enabled: 1
  m_EditorHideFlags: 0
  m_Script: {fileID: 11500000, guid: 2dff5b0947256474db9c85b3b191c26f, type: 3}
  m_Name: Cars List
  m_EditorClassIdentifier: 
  gameObjectList:
  - {fileID: 1744121148197450781, guid: 96d3b489ce171da468d17b9033117918, type: 3}
  - {fileID: 1039971422869414543, guid: d216db0daa3dd0f4b985ef841ee46c50, type: 3}
  - {fileID: 69007696881411657, guid: 261f7701b3e21c248bf3752fb377d7a5, type: 3}
