%YAML 1.1
%TAG !u! tag:unity3d.com,2011:
--- !u!1045 &1
EditorBuildSettings:
  m_ObjectHideFlags: 0
  serializedVersion: 2
  m_Scenes:
  - enabled: 1
    path: Assets/Scenes/Selection Scene.unity
    guid: 0c11a22698a2ffc468940d870dce3c41
  - enabled: 1
    path: Assets/Scenes/Game Scene.unity
    guid: 9fc0d4010bbf28b4594072e72b8655ab
  m_configObjects: {}
